{
    "LanguageName": "Deutsch",

    "LoadingText": "Wird geladen...",
    "OkButton": "OK",
    "CancelButton": "Abbruch",
    "YesButton": "Ja",
    "NoButton": "Nein",
    "ErrorPopup": {
        "TitleText": "Fehler!"
    },
    
    "TitleScreen": {
        "DemoText": "DEMO",
        "SingleplayerButton": "Einzelspieler",
        "MultiplayerButton": "Mehrspieler",
        "TutorialButton": "Spielanleitung",
        "SettingsButton": "Einstellungen",
        "CreditsButton": "Danksagung",
        "QuitButton": "Spiel Beenden"
    },
    
    "Singleplayer": {
        "YourWorldsText": "Deine Welten:",
        "NoWorldsText": "Es sind noch keine Welten vorhanden...",
        "InvalidWorldButton": "(ungültig)",
        "OldWorldButton": "(alt)",
        "NewWorldButton": "Neue Welt erstellen",
        "WorldConversionPopup": {
            "OldWorldVersionText": "Die Welt \"{}\" kann nicht geladen werden, da das Format ({}) nicht mit der aktuellen Version ({}) kompatibel ist.",
            "OldWorldVersionlessText": "Die Welt \"{}\" kann nicht geladen werden, da das Format nicht mit der aktuellen Version kompatibel ist.",
            "ConversionPromptText": "Möchtest du die Welt in Format der aktuellen Version migrieren? Vor Änderungen wird angeboten, eine Wiederherstellungskopie anzulegen."
        },
        "InvalidWorldPopup": {
            "InvalidVersionText": "Welt \"{}\" kann nicht geladen werden, da das Format aus einer neueren Version von 4D Miner stammt, oder die Versionszahl ungültig ist."
        }
    },
    
    "CreateWorld": {
        "WorldNameText": "Name der Welt:",
        "WorldNameInput": "Neue Welt",
        "WorldSeedText": "Seed der Welt:",
        "FlatWorldCheckbox": "Flache Welt",
        "GenerateCavesCheckbox": "Generiere Hölen (langsamer)",
        "CaveSizeSlider": "Größe der Hölen: {}%",
        "BiomeSizeSlider": "Größe von Biomen: {}%",
        "TerrainAmplificationSlider": "Zerklüftungsgrad: {}%",
        "CreateNewWorldButton": "Neue Welt erstellen!"
    },

    "WorldConverter": {
        "CloseWarningText": "Beende NICHT das Spiel!",
        "BackupWorldTitle": "(wiederherstellungskopie)",
        "BackupStatusText": "Kopie von \"{}\" wird erstellt...",
        "ConversionStatusText": "Welt \"{}\" wird vom Format der Version {} zu dem der Version {} konvertiert...",
        "ConversionFinishedText": "Fertig!",
        "BackupPopup": {
            "TitleText": "Wiederherstellungskopie des Ordners von Welt \"{}\" anlegen?",
            "PromptText": "Der Inhalt der Welt \"{}\" könnte durch den Konvertierungsprozess beschädigt werden. Möchtest du zuerst eine Wiederherstellungskopie anlegen?"
        },
        "ErrorPopup":
        {
            "InvalidObjectText": "Das Element \"{}\" kann nicht kopiert werden, es wurde eine normale Datei oder ein Ordner erwartet.",
            "CopyErrorText": "Element \"{}\" kann nicht kopiert werden: \"{}\""
        }
    },
    
    "WorldGen": {
        "ProgressText": "{}/{} Chunks geladen"
    },

    "Game": {
        "Chat":
        {
            "LabelText": "Chat:"
        },
        "CraftingMenu": {
            "LabelText": "Craften:"
        }
    }
}