{
    "LanguageName": "Русский",

    "LoadingText": "Загрузка...",
    "OkButton": "ОК",
    "CancelButton": "Отмена",
    "YesButton": "Да",
    "NoButton": "Нет",
    "ErrorPopup": {
        "TitleText": "Ошибка!"
    },
    
    "TitleScreen": {
        "DemoText": "ДЕМО",
        "SingleplayerButton": "Одиночная игра",
        "MultiplayerButton": "Сетевая игра",
        "TutorialButton": "Туториал",
        "SettingsButton": "Настройки",
        "CreditsButton": "Титры",
        "QuitButton": "Выйти из игры"
    },
    
    "Singleplayer": {
        "YourWorldsText": "Миры:",
        "NoWorldsText": "Нет миров...",
        "InvalidWorldButton": "(недействительный)",
        "OldWorldButton": "(старый)",
        "NewWorldButton": "Создать Новый Мир",
        "WorldConversionPopup": {
            "OldWorldVersionText": "Мир \"{}\" не может быть загружен потому, что он использует устаревшую версию формата ({}), которая не совместима с текущей версией ({}).",
            "OldWorldVersionlessText": "Мир \"{}\" не может быть загружен потому, что он использует устаревшую версию формата, которая не совместима с текущей версией.",
            "ConversionPromptText": "Хотите ли вы конвертировать мир до текущей версии? У вас будет возможность создать резервную копию перед этим."
        },
        "InvalidWorldPopup": {
            "InvalidVersionText": "Мир \"{}\" не может быть загружен потому, что он либо из более новой версии 4D Miner, либо имеет недействительное значение версии."
        }
    },
    
    "CreateWorld": {
        "WorldNameText": "Название Мира:",
        "WorldNameInput": "Новый Мир",
        "WorldSeedText": "Сид Мира:",
        "FlatWorldCheckbox": "Плоский Мир",
        "GenerateCavesCheckbox": "Генерировать пещеры (медленнее)",
        "CaveSizeSlider": "Размер пещер: {}%",
        "CaveFrequencySlider": "Частота пещер: {}%",
        "CaveDetailLevelSlider": "Уровень детализации пещер: {} (значительно медленнее)",
        "BiomeSizeSlider": "Размер биомов: {}%",
        "TerrainAmplificationSlider": "Усиление ландшафта: {}%",
        "CreateNewWorldButton": "Создать Новый Мир!"
    },

    "WorldConverter": {
        "CloseWarningText": "Пожалуйста, не закрывайте игру!",
        "BackupWorldTitle": "(резервная копия)",
        "BackupStatusText": "Создание резервной копии мира \"{}\"...",
        "ConversionStatusText": "Конвертируем мир \"{}\" с версии {} до версии {}...",
        "ConversionFinishedText": "Готово!",
        "BackupPopup": {
            "TitleText": "Создать резервную копию мира \"{}\"?",
            "PromptText": "Данные мира \"{}\" могут быть поврежденны при конвертации. Хотите сначала создать резервную копию?"
        },
        "ErrorPopup":
        {
            "InvalidObjectText": "Не удалось скопировать недействительный объект \"{}\" (ожидался каталог либо обычный файл).",
            "CopyErrorText": "Не удалось скопировать объект \"{}\": \"{}\""
        }
    },
    
    "WorldGen": {
        "ProgressText": "Загруженно {}/{} чанков"
    },

    "Game": {
        "Chat":
        {
            "LabelText": "Чат:"
        },
        "CraftingMenu": {
            "LabelText": "Крафты:"
        }
    }
}